<?xml version="1.0" encoding="UTF-8" standalone="no"?>
<!-- Created with Inkscape (http://www.inkscape.org/) -->

<svg
   xmlns:dc="http://purl.org/dc/elements/1.1/"
   xmlns:cc="http://creativecommons.org/ns#"
   xmlns:rdf="http://www.w3.org/1999/02/22-rdf-syntax-ns#"
   xmlns:svg="http://www.w3.org/2000/svg"
   xmlns="http://www.w3.org/2000/svg"
   version="1.1"
   width="1024"
   height="768"
   id="svg2985">
  <defs
     id="defs2987">
	
<font
   horiz-adv-x="1024"
   id="font3807" />
<font
   horiz-adv-x="1024"
   id="font3801" />
<font
   horiz-adv-x="1024"
   id="font3795" />
</defs>
  <metadata
     id="metadata2990">
    <rdf:RDF>
      <cc:Work
         rdf:about="">
        <dc:format>image/svg+xml</dc:format>
        <dc:type
           rdf:resource="http://purl.org/dc/dcmitype/StillImage" />
        <dc:title></dc:title>
      </cc:Work>
    </rdf:RDF>
  </metadata>
  <g
     id="layer1">
    <g
       transform="translate(119.58482,1.488837)"
       id="layer1-4">
      <path
         d="m -107.11607,8.089286 -1.25,0.65625 c 0.63496,2.5477 0.77083,5.19557 1.34375,7.75 0.4123,2.4613 1.39146,4.6201 2.625,6.71875 1.3522,1.70682 2.68817,3.43377 4.21875,4.96875 1.947421,1.76133 3.960031,3.4283 6.343751,4.46875 0.47604,0.31725 0.96275,0.58877 1.46875,0.8125 -10.329571,1.49211 -18.218751,10.151954 -18.218751,20.687504 l 0,105.84375 c 0,11.59163 9.56049,20.9375 21.406251,20.9375 l 267.218749,0 c 11.84575,0 21.375,-9.34587 21.375,-20.9375 l 0,-105.84375 c 0,-11.59161 -9.52925,-20.906254 -21.375,-20.906254 l -267.218749,0 c -0.11303,0 -0.23116,-0.0017 -0.34375,0 -1.09347,-0.33296 -2.17029,-0.70943 -3.15625,-1.375 -2.3782,-1.01563 -4.37763,-2.71601 -6.3125,-4.46875 -1.525421,-1.52266 -2.864761,-3.24884 -4.218751,-4.9375 -1.22618,-2.08491 -2.18506,-4.20965 -2.59375,-6.65625 -0.56946,-2.54599 -0.72121,-5.17109 -1.3125,-7.71875 z"
         id="path3786"
         style="fill:#ff6600;fill-opacity:1;fill-rule:evenodd;stroke:none" />
    </g>
  </g>
</svg>
